COVID-19 DataFest
…
## Observations: 61,971
## Variables: 6
## $ date   <fct> 2020-01-21, 2020-01-22, 2020-01-23, 2020-01-24, 2020-01-24, 20
## $ county <fct> Snohomish, Snohomish, Snohomish, Cook, Snohomish, Orange, Cook
## $ state  <fct> Washington, Washington, Washington, Illinois, Washington, Cali
## $ fips   <int> 53061, 53061, 53061, 17031, 53061, 6059, 17031, 53061, 4013, 6
## $ cases  <int> 1, 1, 1, 1, 1, 1, 1, 1, 1, 1, 1, 1, 1, 1, 1, 1, 1, 1, 1, 1, 1,
## $ deaths <int> 0, 0, 0, 0, 0, 0, 0, 0, 0, 0, 0, 0, 0, 0, 0, 0, 0, 0, 0, 0, 0,

covidData %>%
  group_by(fips) %>%
  count()

## # A tibble: 2,709 x 2
## # Groups:   fips [2,709]
##     fips     n
##    <int> <int>
##  1  1001    23
##  2  1003    33
##  3  1005    13
##  4  1007    17
##  5  1009    22
##  6  1011    21
##  7  1013    22
##  8  1015    29
##  9  1017    28
## 10  1019    22
## #  with 2,699 more rows
…
