…
```r
covidData %>%
  group_by(fips) %>%
  count()
```

```
## # A tibble: 2,709 x 2
## # Groups:   fips [2,709]
##     fips     n
##    <int> <int>
##  1  1001    23
##  2  1003    33
##  3  1005    13
##  4  1007    17
##  5  1009    22
##  6  1011    21
##  7  1013    22
##  8  1015    29
##  9  1017    28
## 10  1019    22
## # … with 2,699 more rows
```
…
